^D:\GE2B28\個人製作\W-ENDO-GAMEBASEDX11-CC084308460D\ASSETS\SHADER\DEBUG3D.HLSL
/nologo /E"VS" /T vs_4_0_level_9_3 /Fo "D:\GE2B28\個人製作\w-endo-gamebasedx11-cc084308460d\x64\Debug\Debug3D.cso" /Od /Zi D:\GE2B28\個人製作\W-ENDO-GAMEBASEDX11-CC084308460D\ASSETS\SHADER\DEBUG3D.HLSL
^D:\GE2B28\個人製作\W-ENDO-GAMEBASEDX11-CC084308460D\ASSETS\SHADER\SIMPLE2D.HLSL
/nologo /E"VS" /Fo "D:\GE2B28\個人製作\w-endo-gamebasedx11-cc084308460d\x64\Debug\Simple2D.cso" /Od /Zi D:\GE2B28\個人製作\W-ENDO-GAMEBASEDX11-CC084308460D\ASSETS\SHADER\SIMPLE2D.HLSL
^D:\GE2B28\個人製作\W-ENDO-GAMEBASEDX11-CC084308460D\ASSETS\SHADER\SIMPLE3D.HLSL
/nologo /E"VS" /Fo "D:\GE2B28\個人製作\w-endo-gamebasedx11-cc084308460d\x64\Debug\Simple3D.cso" /Od /Zi D:\GE2B28\個人製作\W-ENDO-GAMEBASEDX11-CC084308460D\ASSETS\SHADER\SIMPLE3D.HLSL
^D:\GE2B28\個人\W-ENDO-GAMEBASEDX11-CC084308460D\ASSETS\SHADER\DEBUG3D.HLSL
/nologo /E"VS" /T vs_4_0_level_9_3 /Fo "D:\GE2B28\個人\w-endo-gamebasedx11-cc084308460d\x64\Debug\Debug3D.cso" /Od /Zi D:\GE2B28\個人\W-ENDO-GAMEBASEDX11-CC084308460D\ASSETS\SHADER\DEBUG3D.HLSL
^D:\GE2B28\個人\W-ENDO-GAMEBASEDX11-CC084308460D\ASSETS\SHADER\SIMPLE2D.HLSL
/nologo /E"VS" /Fo "D:\GE2B28\個人\w-endo-gamebasedx11-cc084308460d\x64\Debug\Simple2D.cso" /Od /Zi D:\GE2B28\個人\W-ENDO-GAMEBASEDX11-CC084308460D\ASSETS\SHADER\SIMPLE2D.HLSL
^D:\GE2B28\個人\W-ENDO-GAMEBASEDX11-CC084308460D\ASSETS\SHADER\SIMPLE3D.HLSL
/nologo /E"VS" /Fo "D:\GE2B28\個人\w-endo-gamebasedx11-cc084308460d\x64\Debug\Simple3D.cso" /Od /Zi D:\GE2B28\個人\W-ENDO-GAMEBASEDX11-CC084308460D\ASSETS\SHADER\SIMPLE3D.HLSL
^D:\GE2B28\個人製作\ソードファンタジー\ASSETS\SHADER\DEBUG3D.HLSL
/nologo /E"VS" /T vs_4_0_level_9_3 /Fo "D:\GE2B28\個人製作\ソードファンタジー\x64\Debug\Debug3D.cso" /Od /Zi D:\GE2B28\個人製作\ソードファンタジー\ASSETS\SHADER\DEBUG3D.HLSL
^D:\GE2B28\個人製作\ソードファンタジー\ASSETS\SHADER\SIMPLE2D.HLSL
/nologo /E"VS" /Fo "D:\GE2B28\個人製作\ソードファンタジー\x64\Debug\Simple2D.cso" /Od /Zi D:\GE2B28\個人製作\ソードファンタジー\ASSETS\SHADER\SIMPLE2D.HLSL
^D:\GE2B28\個人製作\ソードファンタジー\ASSETS\SHADER\SIMPLE3D.HLSL
/nologo /E"VS" /Fo "D:\GE2B28\個人製作\ソードファンタジー\x64\Debug\Simple3D.cso" /Od /Zi D:\GE2B28\個人製作\ソードファンタジー\ASSETS\SHADER\SIMPLE3D.HLSL
^D:\GE2B28\個人\ソードファンタジー\ASSETS\SHADER\DEBUG3D.HLSL
/nologo /E"VS" /T vs_4_0_level_9_3 /Fo "D:\GE2B28\個人\ソードファンタジー\x64\Debug\Debug3D.cso" /Od /Zi D:\GE2B28\個人\ソードファンタジー\ASSETS\SHADER\DEBUG3D.HLSL
^D:\GE2B28\個人\ソードファンタジー\ASSETS\SHADER\SIMPLE2D.HLSL
/nologo /E"VS" /Fo "D:\GE2B28\個人\ソードファンタジー\x64\Debug\Simple2D.cso" /Od /Zi D:\GE2B28\個人\ソードファンタジー\ASSETS\SHADER\SIMPLE2D.HLSL
^D:\GE2B28\個人\ソードファンタジー\ASSETS\SHADER\SIMPLE3D.HLSL
/nologo /E"VS" /Fo "D:\GE2B28\個人\ソードファンタジー\x64\Debug\Simple3D.cso" /Od /Zi D:\GE2B28\個人\ソードファンタジー\ASSETS\SHADER\SIMPLE3D.HLSL
^D:\GE3A15\就職用(ゲーム)\ソードファンタジー\ASSETS\SHADER\DEBUG3D.HLSL
/nologo /E"VS" /T vs_4_0_level_9_3 /Fo "D:\GE3A15\就職用(ゲーム)\ソードファンタジー\x64\Debug\Debug3D.cso" /Od /Zi D:\GE3A15\就職用(ゲーム)\ソードファンタジー\ASSETS\SHADER\DEBUG3D.HLSL
^D:\GE3A15\就職用(ゲーム)\ソードファンタジー\ASSETS\SHADER\SIMPLE2D.HLSL
/nologo /E"VS" /Fo "D:\GE3A15\就職用(ゲーム)\ソードファンタジー\x64\Debug\Simple2D.cso" /Od /Zi D:\GE3A15\就職用(ゲーム)\ソードファンタジー\ASSETS\SHADER\SIMPLE2D.HLSL
^D:\GE3A15\就職用(ゲーム)\ソードファンタジー\ASSETS\SHADER\SIMPLE3D.HLSL
/nologo /E"VS" /Fo "D:\GE3A15\就職用(ゲーム)\ソードファンタジー\x64\Debug\Simple3D.cso" /Od /Zi D:\GE3A15\就職用(ゲーム)\ソードファンタジー\ASSETS\SHADER\SIMPLE3D.HLSL
^D:\GE3A15\ゲーム（就職用）\ソードファンタジー\ASSETS\SHADER\DEBUG3D.HLSL
/nologo /E"VS" /T vs_4_0_level_9_3 /Fo "D:\GE3A15\ゲーム（就職用）\ソードファンタジー\x64\Debug\Debug3D.cso" /Od /Zi D:\GE3A15\ゲーム（就職用）\ソードファンタジー\ASSETS\SHADER\DEBUG3D.HLSL
^D:\GE3A15\ゲーム（就職用）\ソードファンタジー\ASSETS\SHADER\SIMPLE2D.HLSL
/nologo /E"VS" /Fo "D:\GE3A15\ゲーム（就職用）\ソードファンタジー\x64\Debug\Simple2D.cso" /Od /Zi D:\GE3A15\ゲーム（就職用）\ソードファンタジー\ASSETS\SHADER\SIMPLE2D.HLSL
^D:\GE3A15\ゲーム（就職用）\ソードファンタジー\ASSETS\SHADER\SIMPLE3D.HLSL
/nologo /E"VS" /Fo "D:\GE3A15\ゲーム（就職用）\ソードファンタジー\x64\Debug\Simple3D.cso" /Od /Zi D:\GE3A15\ゲーム（就職用）\ソードファンタジー\ASSETS\SHADER\SIMPLE3D.HLSL
^D:\GE3A15\ゲーム（就職用)\ソードファンタジー\ASSETS\SHADER\DEBUG3D.HLSL
/nologo /E"VS" /T vs_4_0_level_9_3 /Fo "D:\GE3A15\ゲーム（就職用)\ソードファンタジー\x64\Debug\Debug3D.cso" /Od /Zi D:\GE3A15\ゲーム（就職用)\ソードファンタジー\ASSETS\SHADER\DEBUG3D.HLSL
^D:\GE3A15\ゲーム（就職用)\ソードファンタジー\ASSETS\SHADER\SIMPLE2D.HLSL
/nologo /E"VS" /Fo "D:\GE3A15\ゲーム（就職用)\ソードファンタジー\x64\Debug\Simple2D.cso" /Od /Zi D:\GE3A15\ゲーム（就職用)\ソードファンタジー\ASSETS\SHADER\SIMPLE2D.HLSL
^D:\GE3A15\ゲーム（就職用)\ソードファンタジー\ASSETS\SHADER\SIMPLE3D.HLSL
/nologo /E"VS" /Fo "D:\GE3A15\ゲーム（就職用)\ソードファンタジー\x64\Debug\Simple3D.cso" /Od /Zi D:\GE3A15\ゲーム（就職用)\ソードファンタジー\ASSETS\SHADER\SIMPLE3D.HLSL
^D:\GE3A15\就職用（ゲーム）\ソードファンタジー\ASSETS\SHADER\DEBUG3D.HLSL
/nologo /E"VS" /T vs_4_0_level_9_3 /Fo "D:\GE3A15\就職用（ゲーム）\ソードファンタジー\x64\Debug\Debug3D.cso" /Od /Zi D:\GE3A15\就職用（ゲーム）\ソードファンタジー\ASSETS\SHADER\DEBUG3D.HLSL
^D:\GE3A15\就職用（ゲーム）\ソードファンタジー\ASSETS\SHADER\SIMPLE2D.HLSL
/nologo /E"VS" /Fo "D:\GE3A15\就職用（ゲーム）\ソードファンタジー\x64\Debug\Simple2D.cso" /Od /Zi D:\GE3A15\就職用（ゲーム）\ソードファンタジー\ASSETS\SHADER\SIMPLE2D.HLSL
^D:\GE3A15\就職用（ゲーム）\ソードファンタジー\ASSETS\SHADER\SIMPLE3D.HLSL
/nologo /E"VS" /Fo "D:\GE3A15\就職用（ゲーム）\ソードファンタジー\x64\Debug\Simple3D.cso" /Od /Zi D:\GE3A15\就職用（ゲーム）\ソードファンタジー\ASSETS\SHADER\SIMPLE3D.HLSL
^D:\GE3A15\ソードファンタジー\ASSETS\SHADER\DEBUG3D.HLSL
/nologo /E"VS" /T vs_4_0_level_9_3 /Fo "D:\GE3A15\ソードファンタジー\x64\Debug\Debug3D.cso" /Od /Zi D:\GE3A15\ソードファンタジー\ASSETS\SHADER\DEBUG3D.HLSL
^D:\GE3A15\ソードファンタジー\ASSETS\SHADER\SIMPLE2D.HLSL
/nologo /E"VS" /Fo "D:\GE3A15\ソードファンタジー\x64\Debug\Simple2D.cso" /Od /Zi D:\GE3A15\ソードファンタジー\ASSETS\SHADER\SIMPLE2D.HLSL
^D:\GE3A15\ソードファンタジー\ASSETS\SHADER\SIMPLE3D.HLSL
/nologo /E"VS" /Fo "D:\GE3A15\ソードファンタジー\x64\Debug\Simple3D.cso" /Od /Zi D:\GE3A15\ソードファンタジー\ASSETS\SHADER\SIMPLE3D.HLSL
